%YAML 1.1
%TAG !u! tag:unity3d.com,2011:
--- !u!1 &6081760135176974311
GameObject:
  m_ObjectHideFlags: 0
  m_CorrespondingSourceObject: {fileID: 0}
  m_PrefabInstance: {fileID: 0}
  m_PrefabAsset: {fileID: 0}
  serializedVersion: 6
  m_Component:
  - component: {fileID: 6081760135176974309}
  - component: {fileID: 6081760135176974308}
  m_Layer: 0
  m_Name: GameOverSounds
  m_TagString: Untagged
  m_Icon: {fileID: 0}
  m_NavMeshLayer: 0
  m_StaticEditorFlags: 0
  m_IsActive: 1
--- !u!4 &6081760135176974309
Transform:
  m_ObjectHideFlags: 0
  m_CorrespondingSourceObject: {fileID: 0}
  m_PrefabInstance: {fileID: 0}
  m_PrefabAsset: {fileID: 0}
  m_GameObject: {fileID: 6081760135176974311}
  m_LocalRotation: {x: 0, y: 0, z: 0, w: 1}
  m_LocalPosition: {x: -0.5629255, y: 0.13213055, z: -2.3652344}
  m_LocalScale: {x: 1, y: 1, z: 1}
  m_Children: []
  m_Father: {fileID: 0}
  m_RootOrder: 0
  m_LocalEulerAnglesHint: {x: 0, y: 0, z: 0}
--- !u!114 &6081760135176974308
MonoBehaviour:
  m_ObjectHideFlags: 0
  m_CorrespondingSourceObject: {fileID: 0}
  m_PrefabInstance: {fileID: 0}
  m_PrefabAsset: {fileID: 0}
  m_GameObject: {fileID: 6081760135176974311}
  m_Enabled: 1
  m_EditorHideFlags: 0
  m_Script: {fileID: 11500000, guid: ece6f66f7cc95e240940cd87709fbc6d, type: 3}
  m_Name: 
  m_EditorClassIdentifier: 
  soundCollection:
  - {fileID: 8444688696115728334, guid: 8c18c8af33b7dc34fbffbbad1100fcb9, type: 3}
  - {fileID: 1206630627881092734, guid: 79406691f98f8c949a0de00429dcc67a, type: 3}
  - {fileID: 6102420446316421036, guid: feb7f5785f2218040b8f215ca2ed24bd, type: 3}
  - {fileID: 5966426815618949458, guid: 4d1fcff450d1bbb46a061cef18b372a0, type: 3}
  - {fileID: 3656464255776210461, guid: d0127e0cb425ac44f8198a660eae66de, type: 3}
  - {fileID: 9206106849125983412, guid: 2b55d0a429a9dc249a8ba2610742f42d, type: 3}
  timeBtwSpawn: 0
  startTime: 3
